riscv_trace_sim_tb.vcd
$date
	Wed Sep 10 14:04:05 2025
$end
$version
	Icarus Verilog
$end
$timescale
	1ps
$end
$scope module riscv_trace_sim_tb $end
$var reg 32 ! opcode_i [31:0] $end
$var reg 32 " pc_i [31:0] $end
$var reg 1 # valid_i $end
$var integer 32 $ error_count [31:0] $end
$var integer 32 % test_count [31:0] $end
$scope module uut $end
$var wire 32 & opcode_i [31:0] $end
$var wire 32 ' pc_i [31:0] $end
$var wire 1 # valid_i $end
$var wire 5 ( rd_idx_w [4:0] $end
$var wire 5 ) rb_idx_w [4:0] $end
$var wire 5 * ra_idx_w [4:0] $end
$var wire 32 + imm_storeimm [31:0] $end
$var wire 32 , imm_shamt [31:0] $end
$var wire 32 - imm_jimm20 [31:0] $end
$var wire 32 . imm_imm20 [31:0] $end
$var wire 32 / imm_imm12 [31:0] $end
$var wire 32 0 imm_bimm [31:0] $end
$var reg 32 1 dbg_inst_imm [31:0] $end
$var reg 32 2 dbg_inst_pc [31:0] $end
$var reg 80 3 dbg_inst_ra [79:0] $end
$var reg 80 4 dbg_inst_rb [79:0] $end
$var reg 80 5 dbg_inst_rd [79:0] $end
$var reg 80 6 dbg_inst_str [79:0] $end
$scope function get_regname_str $end
$var reg 5 7 regnum [4:0] $end
$upscope $end
$upscope $end
$scope task test_instruction $end
$var reg 256 8 description [255:0] $end
$var reg 32 9 expected_imm [31:0] $end
$var reg 80 : expected_inst [79:0] $end
$var reg 80 ; expected_ra [79:0] $end
$var reg 80 < expected_rb [79:0] $end
$var reg 80 = expected_rd [79:0] $end
$var reg 32 > opcode_val [31:0] $end
$var reg 32 ? pc_val [31:0] $end
$upscope $end
$upscope $end
$enddefinitions $end
$comment Show the parameter values. $end
$dumpall
$end
#0
$dumpvars
bx ?
bx >
bx =
bx <
bx ;
bx :
bx 9
bx 8
bx 7
b101101 6
b101101 5
b101101 4
b101101 3
bx 2
bx 1
b0 0
b0 /
b0 .
b0 -
b0 ,
b0 +
b0 *
b0 )
b0 (
b0 '
b0 &
b0 %
b0 $
0#
b0 "
b0 !
$end
#10000
b10 *
b100 )
b1 (
b110010000010000000000000000 .
b1100100 /
b100001100000 0
b10000000001100100 -
b1100001 +
b100 ,
b1100100 1
b1100001011001000110010001101001 6
b111001001100001 5
b101101 4
b111001101110000 3
b1 7
b1000000000000 2
1#
b110010000010000000010010011 !
b110010000010000000010010011 &
b1000000000000 "
b1000000000000 '
b1 %
b1000001010001000100010001001001001000000111100000110001001011000010000001111000001100100010110000100000001100010011000000110000 8
b1100100 9
b101101 <
b111001101110000 ;
b111001001100001 =
b1100001011001000110010001101001 :
b110010000010000000010010011 >
b1000000000000 ?
#20000
bx 2
bx 1
b101101 5
b101101 3
b101101 6
0#
#25000
b11 *
b110010000011010000000000000 .
b11010000001100100 -
b1100100 1
b1110011011011000111010001101001 6
b111001001100001 5
b101101 4
b110011101110000 3
b1 7
b1000000000100 2
1#
b110010000011010000010010011 !
b110010000011010000010010011 &
b1000000000100 "
b1000000000100 '
b10 %
b1010011010011000101010001001001001000000111100000110001001011000010000001111000001100100010110000100000001100010011000000110000 8
b1110011011011000111010001101001 :
b110010000011010000010010011 >
b1000000000100 ?
#35000
bx 2
bx 1
b101101 5
b101101 3
b101101 6
0#
b1 $
#40000
b110010000011011000000000000 .
b11011000001100100 -
b1100100 1
b111001101101100011101000110100101110101 6
b111001001100001 5
b101101 4
b110011101110000 3
b1 7
b1000000001000 2
1#
b110010000011011000010010011 !
b110010000011011000010010011 &
b1000000001000 "
b1000000001000 '
b11 %
b101001101001100010101000100100101010101001000000111100000110001001011000010000001111000001100100010110000100000001100010011000000110000 8
b111001101101100011101000110100101110101 :
b110010000011011000010010011 >
b1000000001000 ?
#50000
bx 2
bx 1
b101101 5
b101101 3
b101101 6
0#
b10 $
#55000
b10 *
b110010000010100000000000000 .
b10100000001100100 -
b1100100 1
b1111000011011110111001001101001 6
b111001001100001 5
b101101 4
b111001101110000 3
b1 7
b1000000001100 2
1#
b110010000010100000010010011 !
b110010000010100000010010011 &
b1000000001100 "
b1000000001100 '
b100 %
b1011000010011110101001001001001001000000111100000110001001011000010000001111000001100100010110000100000001100010011000000110000 8
b1111000011011110111001001101001 :
b110010000010100000010010011 >
b1000000001100 ?
#65000
bx 2
bx 1
b101101 5
b101101 3
b101101 6
0#
#70000
b110010000010110000000000000 .
b10110000001100100 -
b1100100 1
b11011110111001001101001 6
b111001001100001 5
b101101 4
b111001101110000 3
b1 7
b1000000010000 2
1#
b110010000010110000010010011 !
b110010000010110000010010011 &
b1000000010000 "
b1000000010000 '
b101 %
b10011110101001001001001001000000111100000110001001011000010000001111000001100100010110000100000001100010011000000110000 8
b11011110111001001101001 :
b110010000010110000010010011 >
b1000000010000 ?
#80000
bx 2
bx 1
b101101 5
b101101 3
b101101 6
0#
#85000
b110010000010111000000000000 .
b10111000001100100 -
b1100100 1
b1100001011011100110010001101001 6
b111001001100001 5
b101101 4
b111001101110000 3
b1 7
b1000000010100 2
1#
b110010000010111000010010011 !
b110010000010111000010010011 &
b1000000010100 "
b1000000010100 '
b110 %
b1000001010011100100010001001001001000000111100000110001001011000010000001111000001100100010110000100000001100010011000000110000 8
b1100001011011100110010001101001 :
b110010000010111000010010011 >
b1000000010100 ?
#95000
bx 2
bx 1
b101101 5
b101101 3
b101101 6
0#
#100000
b101 )
b10100010001000000000000 .
b101 /
b100000000000 0
b10001100000000100 -
b1 +
b101 ,
b101 1
b1110011011011000110110001101001 6
b111001001100001 5
b101101 4
b111001101110000 3
b1 7
b1000000011000 2
1#
b10100010001000010010011 !
b10100010001000010010011 &
b1000000011000 "
b1000000011000 '
b111 %
b101001101001100010011000100100100100000011110000011000100101100001000000111100000110010001011000010000000110101 8
b101 9
b1110011011011000110110001101001 :
b10100010001000010010011 >
b1000000011000 ?
#110000
bx 2
bx 1
b101101 5
b101101 3
b101101 6
0#
#115000
b10100010101000000000000 .
b10101100000000100 -
b101 1
b1110011011100100110110001101001 6
b111001001100001 5
b101101 4
b111001101110000 3
b1 7
b1000000011100 2
1#
b10100010101000010010011 !
b10100010101000010010011 &
b1000000011100 "
b1000000011100 '
b1000 %
b101001101010010010011000100100100100000011110000011000100101100001000000111100000110010001011000010000000110101 8
b1110011011100100110110001101001 :
b10100010101000010010011 >
b1000000011100 ?
#125000
bx 2
bx 1
b101101 5
b101101 3
b101101 6
0#
#130000
b1000000010100010101000000000000 .
b10000000101 /
b110000000000 0
b10101110000000100 -
b10000000001 +
b101 1
b1110011011100100110000101101001 6
b111001001100001 5
b101101 4
b111001101110000 3
b1 7
b1000000100000 2
1#
b1000000010100010101000010010011 !
b1000000010100010101000010010011 &
b1000000100000 "
b1000000100000 '
b1001 %
b101001101010010010000010100100100100000011110000011000100101100001000000111100000110010001011000010000000110101 8
b1110011011100100110000101101001 :
b1000000010100010101000010010011 >
b1000000100000 ?
#140000
bx 2
bx 1
b101101 5
b101101 3
b101101 6
0#
#145000
b1000 *
b11 )
b10010001101000101000000000000 .
b100100011 /
b100100100000 0
b1000101100100100010 -
b100100001 +
b11 ,
b10010001101000101000000000000 1
b11011000111010101101001 6
b111001001100001 5
b101101 4
b101101 3
b1 7
b1000000100100 2
1#
b10010001101000101000010110111 !
b10010001101000101000010110111 &
b1000000100100 "
b1000000100100 '
b1010 %
b10011000101010101001001001000000111100000110001001011000010000000110000011110000011000100110010001100110011010000110101 8
b10010001101000101000000000000 9
b101101 ;
b11011000111010101101001 :
b10010001101000101000010110111 >
b1000000100100 ?
#155000
bx 2
bx 1
b101101 5
b101101 6
0#
#160000
b10010001101000101000000000000 1
b110000101110101011010010111000001100011 6
b111001001100001 5
b101101 4
b111000001100011 3
b1 7
b1000000101000 2
1#
b10010001101000101000010010111 !
b10010001101000101000010010111 &
b1000000101000 "
b1000000101000 '
b1011 %
b100000101010101010010010101000001000011001000000111100000110001001011000010000000110000011110000011000100110010001100110011010000110101 8
b111000001100011 ;
b110000101110101011010010111000001100011 :
b10010001101000101000010010111 >
b1000000101000 ?
#170000
bx 2
bx 1
b101101 5
b101101 3
b101101 6
0#
#175000
b100 *
b101 )
b11 (
b10100100000000000000000 .
b101 /
b100000000010 0
b100000100000000100 -
b11 +
b101 ,
b0 1
b11000010110010001100100 6
b110011101110000 5
b111010000110000 4
b111010001110000 3
b11 7
b1000000101100 2
1#
b10100100000000110110011 !
b10100100000000110110011 &
b1000000101100 "
b1000000101100 '
b1100 %
b100000101000100010001000010000001111000001100110010110000100000011110000011010000101100001000000111100000110101 8
b0 9
b111010000110000 <
b111010001110000 ;
b110011101110000 =
b11000010110010001100100 :
b10100100000000110110011 >
b1000000101100 ?
#185000
bx 2
bx 1
b101101 5
b101101 4
b101101 3
b101101 6
0#
#190000
b1000000010100100000000000000000 .
b10000000101 /
b110000000010 0
b100000110000000100 -
b10000000011 +
b0 1
b11100110111010101100010 6
b110011101110000 5
b111010000110000 4
b111010001110000 3
b11 7
b1000000110000 2
1#
b1000000010100100000000110110011 !
b1000000010100100000000110110011 &
b1000000110000 "
b1000000110000 '
b1101 %
b101001101010101010000100010000001111000001100110010110000100000011110000011010000101100001000000111100000110101 8
b11100110111010101100010 :
b1000000010100100000000110110011 >
b1000000110000 ?
#200000
bx 2
bx 1
b101101 5
b101101 4
b101101 3
b101101 6
0#
#205000
b10100100001000000000000 .
b101 /
b100000000010 0
b100001100000000100 -
b11 +
b0 1
b11100110110110001101100 6
b110011101110000 5
b111010000110000 4
b111010001110000 3
b11 7
b1000000110100 2
1#
b10100100001000110110011 !
b10100100001000110110011 &
b1000000110100 "
b1000000110100 '
b1110 %
b101001101001100010011000010000001111000001100110010110000100000011110000011010000101100001000000111100000110101 8
b11100110110110001101100 :
b10100100001000110110011 >
b1000000110100 ?
#215000
bx 2
bx 1
b101101 5
b101101 4
b101101 3
b101101 6
0#
#220000
b10100100010000000000000 .
b100010100000000100 -
b0 1
b11100110110110001110100 6
b110011101110000 5
b111010000110000 4
b111010001110000 3
b11 7
b1000000111000 2
1#
b10100100010000110110011 !
b10100100010000110110011 &
b1000000111000 "
b1000000111000 '
b1111 %
b101001101001100010101000010000001111000001100110010110000100000011110000011010000101100001000000111100000110101 8
b11100110110110001110100 :
b10100100010000110110011 >
b1000000111000 ?
#230000
bx 2
bx 1
b101101 5
b101101 4
b101101 3
b101101 6
0#
#235000
b10100100011000000000000 .
b100011100000000100 -
b0 1
b1110011011011000111010001110101 6
b110011101110000 5
b111010000110000 4
b111010001110000 3
b11 7
b1000000111100 2
1#
b10100100011000110110011 !
b10100100011000110110011 &
b1000000111100 "
b1000000111100 '
b10000 %
b10100110100110001010100010101010010000001111000001100110010110000100000011110000011010000101100001000000111100000110101 8
b1110011011011000111010001110101 :
b10100100011000110110011 >
b1000000111100 ?
#245000
bx 2
bx 1
b101101 5
b101101 4
b101101 3
b101101 6
0#
#250000
b10100100100000000000000 .
b100100100000000100 -
b0 1
b11110000110111101110010 6
b110011101110000 5
b111010000110000 4
b111010001110000 3
b11 7
b1000001000000 2
1#
b10100100100000110110011 !
b10100100100000110110011 &
b1000001000000 "
b1000001000000 '
b10001 %
b101100001001111010100100010000001111000001100110010110000100000011110000011010000101100001000000111100000110101 8
b11110000110111101110010 :
b10100100100000110110011 >
b1000001000000 ?
#260000
bx 2
bx 1
b101101 5
b101101 4
b101101 3
b101101 6
0#
#265000
b10100100101000000000000 .
b100101100000000100 -
b0 1
b11100110111001001101100 6
b110011101110000 5
b111010000110000 4
b111010001110000 3
b11 7
b1000001000100 2
1#
b10100100101000110110011 !
b10100100101000110110011 &
b1000001000100 "
b1000001000100 '
b10010 %
b101001101010010010011000010000001111000001100110010110000100000011110000011010000101100001000000111100000110101 8
b11100110111001001101100 :
b10100100101000110110011 >
b1000001000100 ?
#275000
bx 2
bx 1
b101101 5
b101101 4
b101101 3
b101101 6
0#
#280000
b1000000010100100101000000000000 .
b10000000101 /
b110000000010 0
b100101110000000100 -
b10000000011 +
b0 1
b11100110111001001100001 6
b110011101110000 5
b111010000110000 4
b111010001110000 3
b11 7
b1000001001000 2
1#
b1000000010100100101000110110011 !
b1000000010100100101000110110011 &
b1000001001000 "
b1000001001000 '
b10011 %
b101001101010010010000010010000001111000001100110010110000100000011110000011010000101100001000000111100000110101 8
b11100110111001001100001 :
b1000000010100100101000110110011 >
b1000001001000 ?
#290000
bx 2
bx 1
b101101 5
b101101 4
b101101 3
b101101 6
0#
#295000
b10100100110000000000000 .
b101 /
b100000000010 0
b100110100000000100 -
b11 +
b0 1
b110111101110010 6
b110011101110000 5
b111010000110000 4
b111010001110000 3
b11 7
b1000001001100 2
1#
b10100100110000110110011 !
b10100100110000110110011 &
b1000001001100 "
b1000001001100 '
b10100 %
b1001111010100100010000001111000001100110010110000100000011110000011010000101100001000000111100000110101 8
b110111101110010 :
b10100100110000110110011 >
b1000001001100 ?
#305000
bx 2
bx 1
b101101 5
b101101 4
b101101 3
b101101 6
0#
#310000
b10100100111000000000000 .
b100111100000000100 -
b0 1
b11000010110111001100100 6
b110011101110000 5
b111010000110000 4
b111010001110000 3
b11 7
b1000001010000 2
1#
b10100100111000110110011 !
b10100100111000110110011 &
b1000001010000 "
b1000001010000 '
b10101 %
b100000101001110010001000010000001111000001100110010110000100000011110000011010000101100001000000111100000110101 8
b11000010110111001100100 :
b10100100111000110110011 >
b1000001010000 ?
#320000
bx 2
bx 1
b101101 5
b101101 4
b101101 3
b101101 6
0#
#325000
b1 *
b0 )
b1 (
b10000000000001110000000000000 .
b100000000 /
b100100000000 0
b1110000100000000 -
b100000001 +
b0 ,
b1111000101010100 1
b1100011011000010110110001101100 6
b111001001100001 5
b101101 4
b101101 3
b1 7
b1000001010100 2
1#
b10000000000001110000011101111 !
b10000000000001110000011101111 &
b1000001010100 "
b1000001010100 '
b10110 %
b10010100100000101001100001000000111100000110001001011000010000000110010001101010011011000100000001010000110001101100001011011000110110000101001 8
b1000101010100 9
b101101 <
b101101 ;
b111001001100001 =
b1100011011000010110110001101100 :
b10000000000001110000011101111 >
b1000001010100 ?
#335000
bx 2
bx 1
b101101 5
b101101 6
0#
b11 $
#340000
b10 *
b11 (
b10000000000010000000000000000 .
b100100000010 0
b10000000100000000 -
b100000011 +
b10001000101011000 1
b11010100110000101101100 6
b110011101110000 5
b101101 4
b11 7
b101101 3
b1000001011000 2
1#
b10000000000010000000111101111 !
b10000000000010000000111101111 &
b1000001011000 "
b1000001011000 '
b10111 %
b100101001000001010011000010000001111000001100110010110000100000001100100011010100110110 8
b1000101011000 9
b110011101110000 =
b11010100110000101101100 :
b10000000000010000000111101111 >
b1000001011000 ?
#350000
bx 2
bx 1
b101101 5
b101101 6
0#
b100 $
#355000
b1 *
b0 (
b1000000000000000 .
b0 /
b0 0
b1000000000000000 -
b0 +
b0 1
b11100100110010101110100 6
b1111010011001010111001001101111 5
b101101 4
b111001001100001 3
b0 7
b1000001011100 2
1#
b1000000001100111 !
b1000000001100111 &
b1000001011100 "
b1000001011100 '
b11000 %
b100101001000001010011000101001000100000011110000011000000101100001000000111100000110001001011000010000000110000001000000010100001110010011001010111010000101001 8
b0 9
b111001001100001 ;
b1111010011001010111001001101111 =
b11100100110010101110100 :
b1000000001100111 >
b1000001011100 ?
#365000
bx 2
bx 1
b101101 5
b101101 3
b101101 6
0#
#370000
b10 *
b1 (
b10000000000000000 .
b100000000000 0
b10000000000000000 -
b1 +
b0 1
b110001101100001011011000110110000100000001010000101001000101001 6
b111001001100001 5
b101101 4
b111001101110000 3
b1 7
b1000001100000 2
1#
b10000000011100111 !
b10000000011100111 &
b1000001100000 "
b1000001100000 '
b11001 %
b10010100100000101001100010100100010000001111000001100010010110000100000011110000011001000101100001000000011000000100000001010000110001101100001011011000110110000100000011100100110010101100111011010010111001101110100011001010111001000101001 8
b111001101110000 ;
b111001001100001 =
b110001101100001011011000110110000100000001010000101001000101001 :
b10000000011100111 >
b1000001100000 ?
#380000
bx 2
bx 1
b101101 5
b101101 3
b101101 6
0#
#385000
b1 *
b10 )
b10000 (
b1000001000000000000000 .
b10 /
b10000 0
b1000000000000010 -
b10000 +
b10 ,
b10000 1
b11000100110010101110001 6
b101101 5
b111001101110000 4
b111001001100001 3
b10000 7
b1000001100100 2
1#
b1000001000100001100011 !
b1000001000100001100011 &
b1000001100100 "
b1000001100100 '
b11010 %
b100001001000101010100010010000001111000001100010010110000100000011110000011001000101100001000000011000100110110 8
b10000 9
b111001101110000 <
b111001001100001 ;
b101101 =
b11000100110010101110001 :
b1000001000100001100011 >
b1000001100100 ?
#395000
bx 2
bx 1
b101101 4
b101101 3
b101101 6
0#
#400000
b1000001001000000000000 .
b1001000000000010 -
b10000 1
b11000100110111001100101 6
b101101 5
b111001101110000 4
b111001001100001 3
b10000 7
b1000001101000 2
1#
b1000001001100001100011 !
b1000001001100001100011 &
b1000001101000 "
b1000001101000 '
b11011 %
b100001001001110010001010010000001111000001100010010110000100000011110000011001000101100001000000011000100110110 8
b11000100110111001100101 :
b1000001001100001100011 >
b1000001101000 ?
#410000
bx 2
bx 1
b101101 4
b101101 3
b101101 6
0#
#415000
b1000001100000000000000 .
b1100000000000010 -
b10000 1
b11000100110110001110100 6
b101101 5
b111001101110000 4
b111001001100001 3
b10000 7
b1000001101100 2
1#
b1000001100100001100011 !
b1000001100100001100011 &
b1000001101100 "
b1000001101100 '
b11100 %
b100001001001100010101000010000001111000001100010010110000100000011110000011001000101100001000000011000100110110 8
b11000100110110001110100 :
b1000001100100001100011 >
b1000001101100 ?
#425000
bx 2
bx 1
b101101 4
b101101 3
b101101 6
0#
#430000
b1000001101000000000000 .
b1101000000000010 -
b10000 1
b11000100110011101100101 6
b101101 5
b111001101110000 4
b111001001100001 3
b10000 7
b1000001110000 2
1#
b1000001101100001100011 !
b1000001101100001100011 &
b1000001110000 "
b1000001110000 '
b11101 %
b100001001000111010001010010000001111000001100010010110000100000011110000011001000101100001000000011000100110110 8
b11000100110011101100101 :
b1000001101100001100011 >
b1000001110000 ?
#440000
bx 2
bx 1
b101101 4
b101101 3
b101101 6
0#
#445000
b1000001110000000000000 .
b1110000000000010 -
b10000 1
b1100010011011000111010001110101 6
b101101 5
b111001101110000 4
b111001001100001 3
b10000 7
b1000001110100 2
1#
b1000001110100001100011 !
b1000001110100001100011 &
b1000001110100 "
b1000001110100 '
b11110 %
b10000100100110001010100010101010010000001111000001100010010110000100000011110000011001000101100001000000011000100110110 8
b1100010011011000111010001110101 :
b1000001110100001100011 >
b1000001110100 ?
#455000
bx 2
bx 1
b101101 4
b101101 3
b101101 6
0#
#460000
b1000001111000000000000 .
b1111000000000010 -
b10000 1
b1100010011001110110010101110101 6
b101101 5
b111001101110000 4
b111001001100001 3
b10000 7
b1000001111000 2
1#
b1000001111100001100011 !
b1000001111100001100011 &
b1000001111000 "
b1000001111000 '
b11111 %
b10000100100011101000101010101010010000001111000001100010010110000100000011110000011001000101100001000000011000100110110 8
b1100010011001110110010101110101 :
b1000001111100001100011 >
b1000001111000 ?
#470000
bx 2
bx 1
b101101 4
b101101 3
b101101 6
0#
#475000
b10 *
b100 )
b1 (
b10000010000000000000000 .
b100 /
b100000000000 0
b10000000000000100 -
b1 +
b100 ,
b100 1
b110110001100010 6
b111001001100001 5
b101101 4
b111001101110000 3
b1 7
b1000001111100 2
1#
b10000010000000010000011 !
b10000010000000010000011 &
b1000001111100 "
b1000001111100 '
b100000 %
b10011000100001000100000011110000011000100101100001000000011010000101000011110000011001000101001 8
b100 9
b101101 <
b111001101110000 ;
b111001001100001 =
b110110001100010 :
b10000010000000010000011 >
b1000001111100 ?
#485000
bx 2
bx 1
b101101 5
b101101 3
b101101 6
0#
#490000
b10000010001000000000000 .
b10001000000000100 -
b100 1
b110110001101000 6
b111001001100001 5
b101101 4
b111001101110000 3
b1 7
b1000010000000 2
1#
b10000010001000010000011 !
b10000010001000010000011 &
b1000010000000 "
b1000010000000 '
b100001 %
b10011000100100000100000011110000011000100101100001000000011010000101000011110000011001000101001 8
b110110001101000 :
b10000010001000010000011 >
b1000010000000 ?
#500000
bx 2
bx 1
b101101 5
b101101 3
b101101 6
0#
#505000
b10000010010000000000000 .
b10010000000000100 -
b100 1
b110110001110111 6
b111001001100001 5
b101101 4
b111001101110000 3
b1 7
b1000010000100 2
1#
b10000010010000010000011 !
b10000010010000010000011 &
b1000010000100 "
b1000010000100 '
b100010 %
b10011000101011100100000011110000011000100101100001000000011010000101000011110000011001000101001 8
b110110001110111 :
b10000010010000010000011 >
b1000010000100 ?
#515000
bx 2
bx 1
b101101 5
b101101 3
b101101 6
0#
#520000
b10000010100000000000000 .
b10100000000000100 -
b100 1
b11011000110001001110101 6
b111001001100001 5
b101101 4
b111001101110000 3
b1 7
b1000010001000 2
1#
b10000010100000010000011 !
b10000010100000010000011 &
b1000010001000 "
b1000010001000 '
b100011 %
b1001100010000100101010100100000011110000011000100101100001000000011010000101000011110000011001000101001 8
b11011000110001001110101 :
b10000010100000010000011 >
b1000010001000 ?
#530000
bx 2
bx 1
b101101 5
b101101 3
b101101 6
0#
#535000
b10000010101000000000000 .
b10101000000000100 -
b100 1
b11011000110100001110101 6
b111001001100001 5
b101101 4
b111001101110000 3
b1 7
b1000010001100 2
1#
b10000010101000010000011 !
b10000010101000010000011 &
b1000010001100 "
b1000010001100 '
b100100 %
b1001100010010000101010100100000011110000011000100101100001000000011010000101000011110000011001000101001 8
b11011000110100001110101 :
b10000010101000010000011 >
b1000010001100 ?
#545000
bx 2
bx 1
b101101 5
b101101 3
b101101 6
0#
#550000
b10000010110000000000000 .
b10110000000000100 -
b100 1
b11011000111011101110101 6
b111001001100001 5
b101101 4
b111001101110000 3
b1 7
b1000010010000 2
1#
b10000010110000010000011 !
b10000010110000010000011 &
b1000010010000 "
b1000010010000 '
b100101 %
b1001100010101110101010100100000011110000011000100101100001000000011010000101000011110000011001000101001 8
b11011000111011101110101 :
b10000010110000010000011 >
b1000010010000 ?
#560000
bx 2
bx 1
b101101 5
b101101 3
b101101 6
0#
#565000
b1 )
b100 (
b100010000000000000000 .
b1 /
b100 0
b10000100000000000 -
b100 +
b1 ,
b100 1
b111001101100010 6
b101101 5
b111001001100001 4
b111001101110000 3
b100 7
b1000010010100 2
1#
b100010000001000100011 !
b100010000001000100011 &
b1000010010100 "
b1000010010100 '
b100110 %
b10100110100001000100000011110000011000100101100001000000011010000101000011110000011001000101001 8
b111001001100001 <
b101101 =
b111001101100010 :
b100010000001000100011 >
b1000010010100 ?
#575000
bx 2
bx 1
b101101 4
b101101 3
b101101 6
0#
#580000
b100010001000000000000 .
b10001100000000000 -
b100 1
b111001101101000 6
b101101 5
b111001001100001 4
b111001101110000 3
b100 7
b1000010011000 2
1#
b100010001001000100011 !
b100010001001000100011 &
b1000010011000 "
b1000010011000 '
b100111 %
b10100110100100000100000011110000011000100101100001000000011010000101000011110000011001000101001 8
b111001101101000 :
b100010001001000100011 >
b1000010011000 ?
#590000
bx 2
bx 1
b101101 4
b101101 3
b101101 6
0#
#595000
b100010010000000000000 .
b10010100000000000 -
b100 1
b111001101110111 6
b101101 5
b111001001100001 4
b111001101110000 3
b100 7
b1000010011100 2
1#
b100010010001000100011 !
b100010010001000100011 &
b1000010011100 "
b1000010011100 '
b101000 %
b10100110101011100100000011110000011000100101100001000000011010000101000011110000011001000101001 8
b111001101110111 :
b100010010001000100011 >
b1000010011100 ?
#605000
bx 2
bx 1
b101101 4
b101101 3
b101101 6
0#
#610000
b100 *
b101 )
b11 (
b10010100100000000000000000 .
b100101 /
b100000100010 0
b100000100000100100 -
b100011 +
b101 ,
b0 1
b11011010111010101101100 6
b110011101110000 5
b111010000110000 4
b111010001110000 3
b11 7
b1000010100000 2
1#
b10010100100000000110110011 !
b10010100100000000110110011 &
b1000010100000 "
b1000010100000 '
b101001 %
b100110101010101010011000010000001111000001100110010110000100000011110000011010000101100001000000111100000110101 8
b0 9
b111010000110000 <
b111010001110000 ;
b110011101110000 =
b11011010111010101101100 :
b10010100100000000110110011 >
b1000010100000 ?
#620000
bx 2
bx 1
b101101 5
b101101 4
b101101 3
b101101 6
0#
#625000
b10010100100001000000000000 .
b100001100000100100 -
b0 1
b1101101011101010110110001101000 6
b110011101110000 5
b111010000110000 4
b111010001110000 3
b11 7
b1000010100100 2
1#
b10010100100001000110110011 !
b10010100100001000110110011 &
b1000010100100 "
b1000010100100 '
b101010 %
b10011010101010101001100010010000010000001111000001100110010110000100000011110000011010000101100001000000111100000110101 8
b1101101011101010110110001101000 :
b10010100100001000110110011 >
b1000010100100 ?
#635000
bx 2
bx 1
b101101 5
b101101 4
b101101 3
b101101 6
0#
#640000
b10010100100010000000000000 .
b100010100000100100 -
b0 1
b11011010111010101101100011010000111001101110101 6
b110011101110000 5
b111010000110000 4
b111010001110000 3
b11 7
b1000010101000 2
1#
b10010100100010000110110011 !
b10010100100010000110110011 &
b1000010101000 "
b1000010101000 '
b101011 %
b100110101010101010011000100100001010011010101010010000001111000001100110010110000100000011110000011010000101100001000000111100000110101 8
b11011010111010101101100011010000111001101110101 :
b10010100100010000110110011 >
b1000010101000 ?
#650000
bx 2
bx 1
b101101 5
b101101 4
b101101 3
b101101 6
0#
#655000
b10010100100011000000000000 .
b100011100000100100 -
b0 1
b110110101110101011011000110100001110101 6
b110011101110000 5
b111010000110000 4
b111010001110000 3
b11 7
b1000010101100 2
1#
b10010100100011000110110011 !
b10010100100011000110110011 &
b1000010101100 "
b1000010101100 '
b101100 %
b1001101010101010100110001001000010101010010000001111000001100110010110000100000011110000011010000101100001000000111100000110101 8
b110110101110101011011000110100001110101 :
b10010100100011000110110011 >
b1000010101100 ?
#665000
bx 2
bx 1
b101101 5
b101101 4
b101101 3
b101101 6
0#
#670000
b10010100100100000000000000 .
b100100100000100100 -
b0 1
b11001000110100101110110 6
b110011101110000 5
b111010000110000 4
b111010001110000 3
b11 7
b1000010110000 2
1#
b10010100100100000110110011 !
b10010100100100000110110011 &
b1000010110000 "
b1000010110000 '
b101101 %
b100010001001001010101100010000001111000001100110010110000100000011110000011010000101100001000000111100000110101 8
b11001000110100101110110 :
b10010100100100000110110011 >
b1000010110000 ?
#680000
bx 2
bx 1
b101101 5
b101101 4
b101101 3
b101101 6
0#
#685000
b10010100100101000000000000 .
b100101100000100100 -
b0 1
b1100100011010010111011001110101 6
b110011101110000 5
b111010000110000 4
b111010001110000 3
b11 7
b1000010110100 2
1#
b10010100100101000110110011 !
b10010100100101000110110011 &
b1000010110100 "
b1000010110100 '
b101110 %
b10001000100100101010110010101010010000001111000001100110010110000100000011110000011010000101100001000000111100000110101 8
b1100100011010010111011001110101 :
b10010100100101000110110011 >
b1000010110100 ?
#695000
bx 2
bx 1
b101101 5
b101101 4
b101101 3
b101101 6
0#
#700000
b10010100100110000000000000 .
b100110100000100100 -
b0 1
b11100100110010101101101 6
b110011101110000 5
b111010000110000 4
b111010001110000 3
b11 7
b1000010111000 2
1#
b10010100100110000110110011 !
b10010100100110000110110011 &
b1000010111000 "
b1000010111000 '
b101111 %
b101001001000101010011010010000001111000001100110010110000100000011110000011010000101100001000000111100000110101 8
b11100100110010101101101 :
b10010100100110000110110011 >
b1000010111000 ?
#710000
bx 2
bx 1
b101101 5
b101101 4
b101101 3
b101101 6
0#
#715000
b10010100100111000000000000 .
b100111100000100100 -
b0 1
b1110010011001010110110101110101 6
b110011101110000 5
b111010000110000 4
b111010001110000 3
b11 7
b1000010111100 2
1#
b10010100100111000110110011 !
b10010100100111000110110011 &
b1000010111100 "
b1000010111100 '
b110000 %
b10100100100010101001101010101010010000001111000001100110010110000100000011110000011010000101100001000000111100000110101 8
b1110010011001010110110101110101 :
b10010100100111000110110011 >
b1000010111100 ?
#725000
bx 2
bx 1
b101101 5
b101101 4
b101101 3
b101101 6
0#
#730000
b0 *
b0 )
b0 (
b0 .
b0 /
b0 0
b0 -
b0 +
b0 ,
b0 1
b110010101100011011000010110110001101100 6
b1111010011001010111001001101111 5
b1111010011001010111001001101111 4
b1111010011001010111001001101111 3
b0 7
b1000011000000 2
1#
b1110011 !
b1110011 &
b1000011000000 "
b1000011000000 '
b110001 %
b100010101000011010000010100110001001100 8
b101101 <
b101101 ;
b101101 =
b110010101100011011000010110110001101100 :
b1110011 >
b1000011000000 ?
#740000
bx 2
bx 1
b101101 5
b101101 4
b101101 3
b101101 6
0#
b111 $
#745000
b0 7
b1 )
b100000000000000000000 .
b1 /
b100000000000 -
b1 ,
b1 1
b11001010110001001110010011001010110000101101011 6
b1111010011001010111001001101111 5
b111001001100001 4
b1111010011001010111001001101111 3
b1000011000100 2
1#
b100000000000001110011 !
b100000000000001110011 &
b1000011000100 "
b1000011000100 '
b110010 %
b10001010100001001010010010001010100000101001011 8
b100000000000000000000 9
b11001010110001001110010011001010110000101101011 :
b100000000000001110011 >
b1000011000100 ?
#755000
bx 2
bx 1
b101101 5
b101101 4
b101101 3
b101101 6
0#
b1011 $
#760000
b10 *
b0 )
b110000000000010001000000000000 .
b1100000000 /
b1100000000 0
b10001001100000000 -
b1100000000 +
b0 ,
b1100000000 1
b110001101110011011100100111001001110111 6
b1111010011001010111001001101111 5
b101101 4
b0 7
b111001101110000 3
b1000011001000 2
1#
b110000000000010001000001110011 !
b110000000000010001000001110011 &
b1000011001000 "
b1000011001000 '
b110011 %
b10000110101001101010010010100100101011100100000011110000011000000101100001000000110110101110011011101000110000101110100011101010111001100101100001000000111100000110010 8
b1100000000 9
b111001101110000 ;
b1111010011001010111001001101111 =
b110001101110011011100100111001001110111 :
b110000000000010001000001110011 >
b1000011001000 ?
#770000
bx 2
bx 1
b101101 5
b101101 3
b101101 6
0#
