riscv_base_regfile_tb.vcd
$date
	Wed Sep 10 06:34:56 2025
$end
$version
	Icarus Verilog
$end
$timescale
	1ps
$end
$scope module riscv_base_regfile_tb $end
$var wire 32 ! rb0_value_o [31:0] $end
$var wire 32 " ra0_value_o [31:0] $end
$var parameter 32 # CLK_PERIOD $end
$var reg 1 $ clk_i $end
$var reg 5 % ra0_i [4:0] $end
$var reg 5 & rb0_i [4:0] $end
$var reg 5 ' rd0_i [4:0] $end
$var reg 32 ( rd0_value_i [31:0] $end
$var reg 1 ) rst_i $end
$var reg 1 * test_passed $end
$var integer 32 + error_count [31:0] $end
$var integer 32 , i [31:0] $end
$var integer 32 - j [31:0] $end
$scope module dut $end
$var wire 1 $ clk_i $end
$var wire 5 . ra0_i [4:0] $end
$var wire 5 / rb0_i [4:0] $end
$var wire 5 0 rd0_i [4:0] $end
$var wire 32 1 rd0_value_i [31:0] $end
$var wire 1 ) rst_i $end
$var wire 32 2 rb0_value_o [31:0] $end
$var wire 32 3 ra0_value_o [31:0] $end
$var parameter 32 4 SUPPORT_REGFILE_XILINX $end
$scope begin REGFILE $end
$var wire 32 5 x0_zero_w [31:0] $end
$var wire 32 6 x10_a0_w [31:0] $end
$var wire 32 7 x11_a1_w [31:0] $end
$var wire 32 8 x12_a2_w [31:0] $end
$var wire 32 9 x13_a3_w [31:0] $end
$var wire 32 : x14_a4_w [31:0] $end
$var wire 32 ; x15_a5_w [31:0] $end
$var wire 32 < x16_a6_w [31:0] $end
$var wire 32 = x17_a7_w [31:0] $end
$var wire 32 > x18_s2_w [31:0] $end
$var wire 32 ? x19_s3_w [31:0] $end
$var wire 32 @ x1_ra_w [31:0] $end
$var wire 32 A x20_s4_w [31:0] $end
$var wire 32 B x21_s5_w [31:0] $end
$var wire 32 C x22_s6_w [31:0] $end
$var wire 32 D x23_s7_w [31:0] $end
$var wire 32 E x24_s8_w [31:0] $end
$var wire 32 F x25_s9_w [31:0] $end
$var wire 32 G x26_s10_w [31:0] $end
$var wire 32 H x27_s11_w [31:0] $end
$var wire 32 I x28_t3_w [31:0] $end
$var wire 32 J x29_t4_w [31:0] $end
$var wire 32 K x2_sp_w [31:0] $end
$var wire 32 L x30_t5_w [31:0] $end
$var wire 32 M x31_t6_w [31:0] $end
$var wire 32 N x3_gp_w [31:0] $end
$var wire 32 O x4_tp_w [31:0] $end
$var wire 32 P x5_t0_w [31:0] $end
$var wire 32 Q x6_t1_w [31:0] $end
$var wire 32 R x7_t2_w [31:0] $end
$var wire 32 S x8_s0_w [31:0] $end
$var wire 32 T x9_s1_w [31:0] $end
$var reg 32 U ra0_value_r [31:0] $end
$var reg 32 V rb0_value_r [31:0] $end
$var reg 32 W reg_r10_q [31:0] $end
$var reg 32 X reg_r11_q [31:0] $end
$var reg 32 Y reg_r12_q [31:0] $end
$var reg 32 Z reg_r13_q [31:0] $end
$var reg 32 [ reg_r14_q [31:0] $end
$var reg 32 \ reg_r15_q [31:0] $end
$var reg 32 ] reg_r16_q [31:0] $end
$var reg 32 ^ reg_r17_q [31:0] $end
$var reg 32 _ reg_r18_q [31:0] $end
$var reg 32 ` reg_r19_q [31:0] $end
$var reg 32 a reg_r1_q [31:0] $end
$var reg 32 b reg_r20_q [31:0] $end
$var reg 32 c reg_r21_q [31:0] $end
$var reg 32 d reg_r22_q [31:0] $end
$var reg 32 e reg_r23_q [31:0] $end
$var reg 32 f reg_r24_q [31:0] $end
$var reg 32 g reg_r25_q [31:0] $end
$var reg 32 h reg_r26_q [31:0] $end
$var reg 32 i reg_r27_q [31:0] $end
$var reg 32 j reg_r28_q [31:0] $end
$var reg 32 k reg_r29_q [31:0] $end
$var reg 32 l reg_r2_q [31:0] $end
$var reg 32 m reg_r30_q [31:0] $end
$var reg 32 n reg_r31_q [31:0] $end
$var reg 32 o reg_r3_q [31:0] $end
$var reg 32 p reg_r4_q [31:0] $end
$var reg 32 q reg_r5_q [31:0] $end
$var reg 32 r reg_r6_q [31:0] $end
$var reg 32 s reg_r7_q [31:0] $end
$var reg 32 t reg_r8_q [31:0] $end
$var reg 32 u reg_r9_q [31:0] $end
$upscope $end
$upscope $end
$upscope $end
$enddefinitions $end
$comment Show the parameter values. $end
$dumpall
b0 4
b1010 #
$end
#0
$dumpvars
bx u
bx t
bx s
bx r
bx q
bx p
bx o
bx n
bx m
bx l
bx k
bx j
bx i
bx h
bx g
bx f
bx e
bx d
bx c
bx b
bx a
bx `
bx _
bx ^
bx ]
bx \
bx [
bx Z
bx Y
bx X
bx W
b0 V
b0 U
bx T
bx S
bx R
bx Q
bx P
bx O
bx N
bx M
bx L
bx K
bx J
bx I
bx H
bx G
bx F
bx E
bx D
bx C
bx B
bx A
bx @
bx ?
bx >
bx =
bx <
bx ;
bx :
bx 9
bx 8
bx 7
bx 6
b0 5
b0 3
b0 2
b0 1
b0 0
b0 /
b0 .
bx -
b100000 ,
b0 +
1*
1)
b0 (
b0 '
b0 &
b0 %
0$
b0 "
b0 !
$end
#5000
b0 M
b0 n
b0 L
b0 m
b0 J
b0 k
b0 I
b0 j
b0 H
b0 i
b0 G
b0 h
b0 F
b0 g
b0 E
b0 f
b0 D
b0 e
b0 C
b0 d
b0 B
b0 c
b0 A
b0 b
b0 ?
b0 `
b0 >
b0 _
b0 =
b0 ^
b0 <
b0 ]
b0 ;
b0 \
b0 :
b0 [
b0 9
b0 Z
b0 8
b0 Y
b0 7
b0 X
b0 6
b0 W
b0 T
b0 u
b0 S
b0 t
b0 R
b0 s
b0 Q
b0 r
b0 P
b0 q
b0 O
b0 p
b0 N
b0 o
b0 K
b0 l
b0 @
b0 a
1$
#10000
0$
#15000
1$
#20000
0$
#25000
1$
#30000
0$
0)
#35000
1$
#40000
0$
#45000
1$
#50000
0$
b0 ,
#52000
b1 %
b1 .
b1 ,
#54000
b10 %
b10 .
b10 ,
#55000
1$
#56000
b11 %
b11 .
b11 ,
#58000
b100 %
b100 .
b100 ,
#60000
b101 %
b101 .
b101 ,
0$
#62000
b110 %
b110 .
b110 ,
#64000
b111 %
b111 .
b111 ,
#65000
1$
#66000
b1000 %
b1000 .
b1000 ,
#68000
b1001 %
b1001 .
b1001 ,
#70000
b1010 %
b1010 .
b1010 ,
0$
#72000
b1011 %
b1011 .
b1011 ,
#74000
b1100 %
b1100 .
b1100 ,
#75000
1$
#76000
b1101 %
b1101 .
b1101 ,
#78000
b1110 %
b1110 .
b1110 ,
#80000
b1111 %
b1111 .
b1111 ,
0$
#82000
b10000 %
b10000 .
b10000 ,
#84000
b10001 %
b10001 .
b10001 ,
#85000
1$
#86000
b10010 %
b10010 .
b10010 ,
#88000
b10011 %
b10011 .
b10011 ,
#90000
b10100 %
b10100 .
b10100 ,
0$
#92000
b10101 %
b10101 .
b10101 ,
#94000
b10110 %
b10110 .
b10110 ,
#95000
1$
#96000
b10111 %
b10111 .
b10111 ,
#98000
b11000 %
b11000 .
b11000 ,
#100000
b11001 %
b11001 .
b11001 ,
0$
#102000
b11010 %
b11010 .
b11010 ,
#104000
b11011 %
b11011 .
b11011 ,
#105000
1$
#106000
b11100 %
b11100 .
b11100 ,
#108000
b11101 %
b11101 .
b11101 ,
#110000
b11110 %
b11110 .
b11110 ,
0$
#112000
b11111 %
b11111 .
b11111 ,
#114000
b11011110101011011011111011101111 (
b11011110101011011011111011101111 1
b100000 ,
#115000
1$
#120000
0$
#125000
b0 %
b0 .
1$
#127000
b10010000101010011010100100100 (
b10010000101010011010100100100 1
b1 '
b1 0
b1 ,
#130000
0$
#135000
b10010000101010011010100100100 @
b10010000101010011010100100100 a
1$
#140000
0$
#145000
b10010000101010011010100100100 "
b10010000101010011010100100100 3
b10010000101010011010100100100 U
b1 %
b1 .
1$
#147000
b11000000100010010101111010000001 (
b11000000100010010101111010000001 1
b10 '
b10 0
b10 ,
#150000
0$
#155000
b11000000100010010101111010000001 K
b11000000100010010101111010000001 l
1$
#160000
0$
#165000
b11000000100010010101111010000001 "
b11000000100010010101111010000001 3
b11000000100010010101111010000001 U
b10 %
b10 .
1$
#167000
b10000100100001001101011000001001 (
b10000100100001001101011000001001 1
b11 '
b11 0
b11 ,
#170000
0$
#175000
b10000100100001001101011000001001 N
b10000100100001001101011000001001 o
1$
#180000
0$
#185000
b10000100100001001101011000001001 "
b10000100100001001101011000001001 3
b10000100100001001101011000001001 U
b11 %
b11 .
1$
#187000
b10110001111100000101011001100011 (
b10110001111100000101011001100011 1
b100 '
b100 0
b100 ,
#190000
0$
#195000
b10110001111100000101011001100011 O
b10110001111100000101011001100011 p
1$
#200000
0$
#205000
b10110001111100000101011001100011 "
b10110001111100000101011001100011 3
b10110001111100000101011001100011 U
b100 %
b100 .
1$
#207000
b110101110010111101100001101 (
b110101110010111101100001101 1
b101 '
b101 0
b101 ,
#210000
0$
#215000
b110101110010111101100001101 P
b110101110010111101100001101 q
1$
#220000
0$
#225000
b110101110010111101100001101 "
b110101110010111101100001101 3
b110101110010111101100001101 U
b101 %
b101 .
1$
#227000
b1000110110111111001100110001101 (
b1000110110111111001100110001101 1
b110 '
b110 0
b110 ,
#230000
0$
#235000
b1000110110111111001100110001101 Q
b1000110110111111001100110001101 r
1$
#240000
0$
#245000
b1000110110111111001100110001101 "
b1000110110111111001100110001101 3
b1000110110111111001100110001101 U
b110 %
b110 .
1$
#247000
b10110010110000101000010001100101 (
b10110010110000101000010001100101 1
b111 '
b111 0
b111 ,
#250000
0$
#255000
b10110010110000101000010001100101 R
b10110010110000101000010001100101 s
1$
#260000
0$
#265000
b10110010110000101000010001100101 "
b10110010110000101000010001100101 3
b10110010110000101000010001100101 U
b111 %
b111 .
1$
#267000
b10001001001101110101001000010010 (
b10001001001101110101001000010010 1
b1000 '
b1000 0
b1000 ,
#270000
0$
#275000
b10001001001101110101001000010010 S
b10001001001101110101001000010010 t
1$
#280000
0$
#285000
b10001001001101110101001000010010 "
b10001001001101110101001000010010 3
b10001001001101110101001000010010 U
b1000 %
b1000 .
1$
#287000
b111100111110001100000001 (
b111100111110001100000001 1
b1001 '
b1001 0
b1001 ,
#290000
0$
#295000
b111100111110001100000001 T
b111100111110001100000001 u
1$
#300000
0$
#305000
b111100111110001100000001 "
b111100111110001100000001 3
b111100111110001100000001 U
b1001 %
b1001 .
1$
#307000
b110110101111100110100001101 (
b110110101111100110100001101 1
b1010 '
b1010 0
b1010 ,
#310000
0$
#315000
b110110101111100110100001101 6
b110110101111100110100001101 W
1$
#320000
0$
#325000
b110110101111100110100001101 "
b110110101111100110100001101 3
b110110101111100110100001101 U
b1010 %
b1010 .
1$
#327000
b111011001000111111000101110110 (
b111011001000111111000101110110 1
b1011 '
b1011 0
b1011 ,
#330000
0$
#335000
b111011001000111111000101110110 7
b111011001000111111000101110110 X
1$
#340000
0$
#345000
b111011001000111111000101110110 "
b111011001000111111000101110110 3
b111011001000111111000101110110 U
b1011 %
b1011 .
1$
#347000
b11110100011011100110100111101 (
b11110100011011100110100111101 1
b1100 '
b1100 0
b1100 ,
#350000
0$
#355000
b11110100011011100110100111101 8
b11110100011011100110100111101 Y
1$
#360000
0$
#365000
b11110100011011100110100111101 "
b11110100011011100110100111101 3
b11110100011011100110100111101 U
b1100 %
b1100 .
1$
#367000
b1110110110101000101011111101101 (
b1110110110101000101011111101101 1
b1101 '
b1101 0
b1101 ,
#370000
0$
#375000
b1110110110101000101011111101101 9
b1110110110101000101011111101101 Z
1$
#380000
0$
#385000
b1110110110101000101011111101101 "
b1110110110101000101011111101101 3
b1110110110101000101011111101101 U
b1101 %
b1101 .
1$
#387000
b1000110001011011111011110001100 (
b1000110001011011111011110001100 1
b1110 '
b1110 0
b1110 ,
#390000
0$
#395000
b1000110001011011111011110001100 :
b1000110001011011111011110001100 [
1$
#400000
0$
#405000
b1000110001011011111011110001100 "
b1000110001011011111011110001100 3
b1000110001011011111011110001100 U
b1110 %
b1110 .
1$
#407000
b1111100111111011110100111111001 (
b1111100111111011110100111111001 1
b1111 '
b1111 0
b1111 ,
#410000
0$
#415000
b1111100111111011110100111111001 ;
b1111100111111011110100111111001 \
1$
#420000
0$
#425000
b1111100111111011110100111111001 "
b1111100111111011110100111111001 3
b1111100111111011110100111111001 U
b1111 %
b1111 .
1$
#427000
b11100011001101110010010011000110 (
b11100011001101110010010011000110 1
b10000 '
b10000 0
b10000 ,
#430000
0$
#435000
b11100011001101110010010011000110 <
b11100011001101110010010011000110 ]
1$
#440000
0$
#445000
b11100011001101110010010011000110 "
b11100011001101110010010011000110 3
b11100011001101110010010011000110 U
b10000 %
b10000 .
1$
#447000
b11100010111101111000010011000101 (
b11100010111101111000010011000101 1
b10001 '
b10001 0
b10001 ,
#450000
0$
#455000
b11100010111101111000010011000101 =
b11100010111101111000010011000101 ^
1$
#460000
0$
#465000
b11100010111101111000010011000101 "
b11100010111101111000010011000101 3
b11100010111101111000010011000101 U
b10001 %
b10001 .
1$
#467000
b11010101000100111101001010101010 (
b11010101000100111101001010101010 1
b10010 '
b10010 0
b10010 ,
#470000
0$
#475000
b11010101000100111101001010101010 >
b11010101000100111101001010101010 _
1$
#480000
0$
#485000
b11010101000100111101001010101010 "
b11010101000100111101001010101010 3
b11010101000100111101001010101010 U
b10010 %
b10010 .
1$
#487000
b1110010101011111111011111100101 (
b1110010101011111111011111100101 1
b10011 '
b10011 0
b10011 ,
#490000
0$
#495000
b1110010101011111111011111100101 ?
b1110010101011111111011111100101 `
1$
#500000
0$
#505000
b1110010101011111111011111100101 "
b1110010101011111111011111100101 3
b1110010101011111111011111100101 U
b10011 %
b10011 .
1$
#507000
b10111011110100100111001001110111 (
b10111011110100100111001001110111 1
b10100 '
b10100 0
b10100 ,
#510000
0$
#515000
b10111011110100100111001001110111 A
b10111011110100100111001001110111 b
1$
#520000
0$
#525000
b10111011110100100111001001110111 "
b10111011110100100111001001110111 3
b10111011110100100111001001110111 U
b10100 %
b10100 .
1$
#527000
b10001001001100101101011000010010 (
b10001001001100101101011000010010 1
b10101 '
b10101 0
b10101 ,
#530000
0$
#535000
b10001001001100101101011000010010 B
b10001001001100101101011000010010 c
1$
#540000
0$
#545000
b10001001001100101101011000010010 "
b10001001001100101101011000010010 3
b10001001001100101101011000010010 U
b10101 %
b10101 .
1$
#547000
b1000111111011001101101110001111 (
b1000111111011001101101110001111 1
b10110 '
b10110 0
b10110 ,
#550000
0$
#555000
b1000111111011001101101110001111 C
b1000111111011001101101110001111 d
1$
#560000
0$
#565000
b1000111111011001101101110001111 "
b1000111111011001101101110001111 3
b1000111111011001101101110001111 U
b10110 %
b10110 .
1$
#567000
b1111001001100000110100111110010 (
b1111001001100000110100111110010 1
b10111 '
b10111 0
b10111 ,
#570000
0$
#575000
b1111001001100000110100111110010 D
b1111001001100000110100111110010 e
1$
#580000
0$
#585000
b1111001001100000110100111110010 "
b1111001001100000110100111110010 3
b1111001001100000110100111110010 U
b10111 %
b10111 .
1$
#587000
b11100111011101101001011011001110 (
b11100111011101101001011011001110 1
b11000 '
b11000 0
b11000 ,
#590000
0$
#595000
b11100111011101101001011011001110 E
b11100111011101101001011011001110 f
1$
#600000
0$
#605000
b11100111011101101001011011001110 "
b11100111011101101001011011001110 3
b11100111011101101001011011001110 U
b11000 %
b11000 .
1$
#607000
b11110100000000000111101011101000 (
b11110100000000000111101011101000 1
b11001 '
b11001 0
b11001 ,
#610000
0$
#615000
b11110100000000000111101011101000 F
b11110100000000000111101011101000 g
1$
#620000
0$
#625000
b11110100000000000111101011101000 "
b11110100000000000111101011101000 3
b11110100000000000111101011101000 U
b11001 %
b11001 .
1$
#627000
b11100010110010100100111011000101 (
b11100010110010100100111011000101 1
b11010 '
b11010 0
b11010 ,
#630000
0$
#635000
b11100010110010100100111011000101 G
b11100010110010100100111011000101 h
1$
#640000
0$
#645000
b11100010110010100100111011000101 "
b11100010110010100100111011000101 3
b11100010110010100100111011000101 U
b11010 %
b11010 .
1$
#647000
b101110010110000100100101011100 (
b101110010110000100100101011100 1
b11011 '
b11011 0
b11011 ,
#650000
0$
#655000
b101110010110000100100101011100 H
b101110010110000100100101011100 i
1$
#660000
0$
#665000
b101110010110000100100101011100 "
b101110010110000100100101011100 3
b101110010110000100100101011100 U
b11011 %
b11011 .
1$
#667000
b11011110100011100010100010111101 (
b11011110100011100010100010111101 1
b11100 '
b11100 0
b11100 ,
#670000
0$
#675000
b11011110100011100010100010111101 I
b11011110100011100010100010111101 j
1$
#680000
0$
#685000
b11011110100011100010100010111101 "
b11011110100011100010100010111101 3
b11011110100011100010100010111101 U
b11100 %
b11100 .
1$
#687000
b10010110101010110101100000101101 (
b10010110101010110101100000101101 1
b11101 '
b11101 0
b11101 ,
#690000
0$
#695000
b10010110101010110101100000101101 J
b10010110101010110101100000101101 k
1$
#700000
0$
#705000
b10010110101010110101100000101101 "
b10010110101010110101100000101101 3
b10010110101010110101100000101101 U
b11101 %
b11101 .
1$
#707000
b10110010101001110010011001100101 (
b10110010101001110010011001100101 1
b11110 '
b11110 0
b11110 ,
#710000
0$
#715000
b10110010101001110010011001100101 L
b10110010101001110010011001100101 m
1$
#720000
0$
#725000
b10110010101001110010011001100101 "
b10110010101001110010011001100101 3
b10110010101001110010011001100101 U
b11110 %
b11110 .
1$
#727000
b10110001111011110110001001100011 (
b10110001111011110110001001100011 1
b11111 '
b11111 0
b11111 ,
#730000
0$
#735000
b10110001111011110110001001100011 M
b10110001111011110110001001100011 n
1$
#740000
0$
#745000
b10110001111011110110001001100011 "
b10110001111011110110001001100011 3
b10110001111011110110001001100011 U
b11111 %
b11111 .
1$
#747000
b11100010110010100100111011000101 !
b11100010110010100100111011000101 2
b11100010110010100100111011000101 V
b10010000101010011010100100100 "
b10010000101010011010100100100 3
b10010000101010011010100100100 U
b11010 &
b11010 /
b1 %
b1 .
b11010 -
b1 ,
#749000
b101110010110000100100101011100 !
b101110010110000100100101011100 2
b101110010110000100100101011100 V
b11011 &
b11011 /
b11011 -
#750000
0$
#751000
b11011110100011100010100010111101 !
b11011110100011100010100010111101 2
b11011110100011100010100010111101 V
b11100 &
b11100 /
b11100 -
#753000
b10010110101010110101100000101101 !
b10010110101010110101100000101101 2
b10010110101010110101100000101101 V
b11101 &
b11101 /
b11101 -
#755000
b10110010101001110010011001100101 !
b10110010101001110010011001100101 2
b10110010101001110010011001100101 V
b11110 &
b11110 /
b11110 -
1$
#757000
b10110001111011110110001001100011 !
b10110001111011110110001001100011 2
b10110001111011110110001001100011 V
b11111 &
b11111 /
b11111 -
#759000
b11100010110010100100111011000101 !
b11100010110010100100111011000101 2
b11100010110010100100111011000101 V
b11000000100010010101111010000001 "
b11000000100010010101111010000001 3
b11000000100010010101111010000001 U
b11010 &
b11010 /
b10 %
b10 .
b10 ,
b11010 -
#760000
0$
#761000
b101110010110000100100101011100 !
b101110010110000100100101011100 2
b101110010110000100100101011100 V
b11011 &
b11011 /
b11011 -
#763000
b11011110100011100010100010111101 !
b11011110100011100010100010111101 2
b11011110100011100010100010111101 V
b11100 &
b11100 /
b11100 -
#765000
b10010110101010110101100000101101 !
b10010110101010110101100000101101 2
b10010110101010110101100000101101 V
b11101 &
b11101 /
b11101 -
1$
#767000
b10110010101001110010011001100101 !
b10110010101001110010011001100101 2
b10110010101001110010011001100101 V
b11110 &
b11110 /
b11110 -
#769000
b10110001111011110110001001100011 !
b10110001111011110110001001100011 2
b10110001111011110110001001100011 V
b11111 &
b11111 /
b11111 -
#770000
0$
#771000
b11100010110010100100111011000101 !
b11100010110010100100111011000101 2
b11100010110010100100111011000101 V
b10000100100001001101011000001001 "
b10000100100001001101011000001001 3
b10000100100001001101011000001001 U
b11010 &
b11010 /
b11 %
b11 .
b11 ,
b11010 -
#773000
b101110010110000100100101011100 !
b101110010110000100100101011100 2
b101110010110000100100101011100 V
b11011 &
b11011 /
b11011 -
#775000
b11011110100011100010100010111101 !
b11011110100011100010100010111101 2
b11011110100011100010100010111101 V
b11100 &
b11100 /
b11100 -
1$
#777000
b10010110101010110101100000101101 !
b10010110101010110101100000101101 2
b10010110101010110101100000101101 V
b11101 &
b11101 /
b11101 -
#779000
b10110010101001110010011001100101 !
b10110010101001110010011001100101 2
b10110010101001110010011001100101 V
b11110 &
b11110 /
b11110 -
#780000
0$
#781000
b10110001111011110110001001100011 !
b10110001111011110110001001100011 2
b10110001111011110110001001100011 V
b11111 &
b11111 /
b11111 -
#783000
b11100010110010100100111011000101 !
b11100010110010100100111011000101 2
b11100010110010100100111011000101 V
b10110001111100000101011001100011 "
b10110001111100000101011001100011 3
b10110001111100000101011001100011 U
b11010 &
b11010 /
b100 %
b100 .
b100 ,
b11010 -
#785000
b101110010110000100100101011100 !
b101110010110000100100101011100 2
b101110010110000100100101011100 V
b11011 &
b11011 /
b11011 -
1$
#787000
b11011110100011100010100010111101 !
b11011110100011100010100010111101 2
b11011110100011100010100010111101 V
b11100 &
b11100 /
b11100 -
#789000
b10010110101010110101100000101101 !
b10010110101010110101100000101101 2
b10010110101010110101100000101101 V
b11101 &
b11101 /
b11101 -
#790000
0$
#791000
b10110010101001110010011001100101 !
b10110010101001110010011001100101 2
b10110010101001110010011001100101 V
b11110 &
b11110 /
b11110 -
#793000
b10110001111011110110001001100011 !
b10110001111011110110001001100011 2
b10110001111011110110001001100011 V
b11111 &
b11111 /
b11111 -
#795000
b11100010110010100100111011000101 !
b11100010110010100100111011000101 2
b11100010110010100100111011000101 V
b110101110010111101100001101 "
b110101110010111101100001101 3
b110101110010111101100001101 U
b11010 &
b11010 /
b101 %
b101 .
b101 ,
b11010 -
1$
#797000
b101110010110000100100101011100 !
b101110010110000100100101011100 2
b101110010110000100100101011100 V
b11011 &
b11011 /
b11011 -
#799000
b11011110100011100010100010111101 !
b11011110100011100010100010111101 2
b11011110100011100010100010111101 V
b11100 &
b11100 /
b11100 -
#800000
0$
#801000
b10010110101010110101100000101101 !
b10010110101010110101100000101101 2
b10010110101010110101100000101101 V
b11101 &
b11101 /
b11101 -
#803000
b10110010101001110010011001100101 !
b10110010101001110010011001100101 2
b10110010101001110010011001100101 V
b11110 &
b11110 /
b11110 -
#805000
b10110001111011110110001001100011 !
b10110001111011110110001001100011 2
b10110001111011110110001001100011 V
b11111 &
b11111 /
b11111 -
1$
#807000
b11111111111111111111111111111111 (
b11111111111111111111111111111111 1
b0 '
b0 0
b110 ,
b100000 -
#810000
0$
#815000
1$
#820000
0$
#825000
b0 "
b0 3
b0 U
b0 %
b0 .
1$
#827000
b1111100111111011110100111111001 !
b1111100111111011110100111111001 2
b1111100111111011110100111111001 V
b110101110010111101100001101 "
b110101110010111101100001101 3
b110101110010111101100001101 U
b1111 &
b1111 /
b101 %
b101 .
b10010001101000101011001111000 (
b10010001101000101011001111000 1
b1010 '
b1010 0
#830000
0$
#835000
b10010001101000101011001111000 6
b10010001101000101011001111000 W
1$
#840000
0$
#845000
b10010001101000101011001111000 "
b10010001101000101011001111000 3
b10010001101000101011001111000 U
b1010 %
b1010 .
1$
#847000
b10010001101000101011001111000 !
b10010001101000101011001111000 2
b10010001101000101011001111000 V
b0 "
b0 3
b0 U
b1010 &
b1010 /
b0 %
b0 .
b11000000001110110010001010000000 (
b11000000001110110010001010000000 1
b0 ,
#850000
0$
#855000
b11000000001110110010001010000000 !
b11000000001110110010001010000000 2
b11000000001110110010001010000000 V
b11000000001110110010001010000000 6
b11000000001110110010001010000000 W
1$
#857000
b1110110110101000101011111101101 !
b1110110110101000101011111101101 2
b1110110110101000101011111101101 V
b1110010101011111111011111100101 "
b1110010101011111111011111100101 3
b1110010101011111111011111100101 U
b1101 &
b1101 /
b10011 %
b10011 .
b11001011001000000011111010010110 (
b11001011001000000011111010010110 1
b11101 '
b11101 0
b1 ,
#860000
0$
#865000
b11001011001000000011111010010110 J
b11001011001000000011111010010110 k
1$
#867000
b11000000100010010101111010000001 !
b11000000100010010101111010000001 2
b11000000100010010101111010000001 V
b10001001001100101101011000010010 "
b10001001001100101101011000010010 3
b10001001001100101101011000010010 U
b10 &
b10 /
b10101 %
b10101 .
b110101100111111101110101101011 (
b110101100111111101110101101011 1
b10011 '
b10011 0
b10 ,
#870000
0$
#875000
b110101100111111101110101101011 ?
b110101100111111101110101101011 `
1$
#877000
b10000100100001001101011000001001 !
b10000100100001001101011000001001 2
b10000100100001001101011000001001 V
b1111100111111011110100111111001 "
b1111100111111011110100111111001 3
b1111100111111011110100111111001 U
b11 &
b11 /
b1111 %
b1111 .
b1110111111111110100100011101 (
b1110111111111110100100011101 1
b1110 '
b1110 0
b11 ,
#880000
0$
#885000
b1110111111111110100100011101 :
b1110111111111110100100011101 [
1$
#887000
b11010101000100111101001010101010 !
b11010101000100111101001010101010 2
b11010101000100111101001010101010 V
b11011110100011100010100010111101 "
b11011110100011100010100010111101 3
b11011110100011100010100010111101 U
b10010 &
b10010 /
b11100 %
b11100 .
b11100101011100110000101011001010 (
b11100101011100110000101011001010 1
b1010 '
b1010 0
b100 ,
#890000
0$
#895000
b11100101011100110000101011001010 6
b11100101011100110000101011001010 W
1$
#897000
b11100111011101101001011011001110 !
b11100111011101101001011011001110 2
b11100111011101101001011011001110 V
b11100111011101101001011011001110 "
b11100111011101101001011011001110 3
b11100111011101101001011011001110 U
b11000 &
b11000 /
b11000 %
b11000 .
b100000110001001011001101000001 (
b100000110001001011001101000001 1
b101 ,
#900000
0$
#905000
b100000110001001011001101000001 6
b100000110001001011001101000001 W
1$
#907000
b1000110110111111001100110001101 !
b1000110110111111001100110001101 2
b1000110110111111001100110001101 V
b1000111111011001101101110001111 "
b1000111111011001101101110001111 3
b1000111111011001101101110001111 U
b110 &
b110 /
b10110 %
b10110 .
b1110101110001010000110111101011 (
b1110101110001010000110111101011 1
b1001 '
b1001 0
b110 ,
#910000
0$
#915000
b1110101110001010000110111101011 T
b1110101110001010000110111101011 u
1$
#917000
b111011001000111111000101110110 !
b111011001000111111000101110110 2
b111011001000111111000101110110 V
b100000110001001011001101000001 "
b100000110001001011001101000001 3
b100000110001001011001101000001 U
b1011 &
b1011 /
b1010 %
b1010 .
b11011110011101010000001010111100 (
b11011110011101010000001010111100 1
b1110 '
b1110 0
b111 ,
#920000
0$
#925000
b11011110011101010000001010111100 :
b11011110011101010000001010111100 [
1$
#927000
b101110010110000100100101011100 !
b101110010110000100100101011100 2
b101110010110000100100101011100 V
b1111100111111011110100111111001 "
b1111100111111011110100111111001 3
b1111100111111011110100111111001 U
b11011 &
b11011 /
b1111 %
b1111 .
b1000010111100100100000110000101 (
b1000010111100100100000110000101 1
b10001 '
b10001 0
b1000 ,
#930000
0$
#935000
b1000010111100100100000110000101 =
b1000010111100100100000110000101 ^
1$
#937000
b1000010111100100100000110000101 !
b1000010111100100100000110000101 2
b1000010111100100100000110000101 V
b10001001001100101101011000010010 "
b10001001001100101101011000010010 3
b10001001001100101101011000010010 U
b10001 &
b10001 /
b10101 %
b10101 .
b10111111001000110011001001111110 (
b10111111001000110011001001111110 1
b11010 '
b11010 0
b1001 ,
#940000
0$
#945000
b10111111001000110011001001111110 G
b10111111001000110011001001111110 h
1$
#947000
b10110001111011110110001001100011 !
b10110001111011110110001001100011 2
b10110001111011110110001001100011 V
b11110100011011100110100111101 "
b11110100011011100110100111101 3
b11110100011011100110100111101 U
b11111 &
b11111 /
b1100 %
b1100 .
b110001001000110000011101100010 (
b110001001000110000011101100010 1
b11001 '
b11001 0
b1010 ,
#950000
0$
#955000
b110001001000110000011101100010 F
b110001001000110000011101100010 g
1$
#957000
b1111001001100000110100111110010 "
b1111001001100000110100111110010 3
b1111001001100000110100111110010 U
b10111 %
b10111 .
b1111100011011011010100111111000 (
b1111100011011011010100111111000 1
b1111 '
b1111 0
b1011 ,
#960000
0$
#965000
b1111100011011011010100111111000 ;
b1111100011011011010100111111000 \
1$
#967000
b1110101110001010000110111101011 !
b1110101110001010000110111101011 2
b1110101110001010000110111101011 V
b1110101110001010000110111101011 "
b1110101110001010000110111101011 3
b1110101110001010000110111101011 U
b1001 &
b1001 /
b1001 %
b1001 .
b10101101110010111100000001011011 (
b10101101110010111100000001011011 1
b11100 '
b11100 0
b1100 ,
#970000
0$
#975000
b10101101110010111100000001011011 I
b10101101110010111100000001011011 j
1$
#977000
b1000111111011001101101110001111 !
b1000111111011001101101110001111 2
b1000111111011001101101110001111 V
b1000010111100100100000110000101 "
b1000010111100100100000110000101 3
b1000010111100100100000110000101 U
b10110 &
b10110 /
b10001 %
b10001 .
b11101011111111101100000011010111 (
b11101011111111101100000011010111 1
b10000 '
b10000 0
b1101 ,
#980000
0$
#985000
b11101011111111101100000011010111 <
b11101011111111101100000011010111 ]
1$
#987000
b1111001001100000110100111110010 !
b1111001001100000110100111110010 2
b1111001001100000110100111110010 V
b10001001001101110101001000010010 "
b10001001001101110101001000010010 3
b10001001001101110101001000010010 U
b10111 &
b10111 /
b1000 %
b1000 .
b11100001001011001100111011000010 (
b11100001001011001100111011000010 1
b1100 '
b1100 0
b1110 ,
#990000
0$
#995000
b11100001001011001100111011000010 8
b11100001001011001100111011000010 Y
1$
#997000
b1110110110101000101011111101101 !
b1110110110101000101011111101101 2
b1110110110101000101011111101101 V
b10110010101001110010011001100101 "
b10110010101001110010011001100101 3
b10110010101001110010011001100101 U
b1101 &
b1101 /
b11110 %
b11110 .
b1001000011001101101100010010 (
b1001000011001101101100010010 1
b11101 '
b11101 0
b1111 ,
#1000000
0$
#1005000
b1001000011001101101100010010 J
b1001000011001101101100010010 k
1$
#1007000
b110101110010111101100001101 !
b110101110010111101100001101 2
b110101110010111101100001101 V
b110101100111111101110101101011 "
b110101100111111101110101101011 3
b110101100111111101110101101011 U
b101 &
b101 /
b10011 %
b10011 .
b1111110100101000111100011111 (
b1111110100101000111100011111 1
b11001 '
b11001 0
b10000 ,
#1010000
0$
